{
  "testSuite": "BackstopJS",
  "tests": [
    {
      "pair": {
        "reference": "../bitmaps_reference/BackstopHighEdWebAcademiesTest_HighEdWeb_Association_Home_Page_0_document_0_phone.png",
        "referenceLog": "../bitmaps_reference/BackstopHighEdWebAcademiesTest_HighEdWeb_Association_Home_Page_0_document_0_phone.log.json",
        "test": "../bitmaps_test/20230527-114138/BackstopHighEdWebAcademiesTest_HighEdWeb_Association_Home_Page_0_document_0_phone.png",
        "testLog": "../bitmaps_test/20230527-114138/BackstopHighEdWebAcademiesTest_HighEdWeb_Association_Home_Page_0_document_0_phone.log.json",
        "selector": "document",
        "fileName": "BackstopHighEdWebAcademiesTest_HighEdWeb_Association_Home_Page_0_document_0_phone.png",
        "label": "HighEdWeb Association Home Page",
        "requireSameDimensions": true,
        "misMatchThreshold": 0.1,
        "url": "https://test-hewacademy.pantheonsite.io/",
        "referenceUrl": "",
        "expect": 0,
        "viewportLabel": "phone",
        "diff": {
          "isSameDimensions": true,
          "dimensionDifference": {
            "width": 0,
            "height": 0
          },
          "misMatchPercentage": "0.00"
        }
      },
      "status": "pass"
    },
    {
      "pair": {
        "reference": "../bitmaps_reference/BackstopHighEdWebAcademiesTest_HighEdWeb_Association_Home_Page_0_document_1_tablet.png",
        "referenceLog": "../bitmaps_reference/BackstopHighEdWebAcademiesTest_HighEdWeb_Association_Home_Page_0_document_1_tablet.log.json",
        "test": "../bitmaps_test/20230527-114138/BackstopHighEdWebAcademiesTest_HighEdWeb_Association_Home_Page_0_document_1_tablet.png",
        "testLog": "../bitmaps_test/20230527-114138/BackstopHighEdWebAcademiesTest_HighEdWeb_Association_Home_Page_0_document_1_tablet.log.json",
        "selector": "document",
        "fileName": "BackstopHighEdWebAcademiesTest_HighEdWeb_Association_Home_Page_0_document_1_tablet.png",
        "label": "HighEdWeb Association Home Page",
        "requireSameDimensions": true,
        "misMatchThreshold": 0.1,
        "url": "https://test-hewacademy.pantheonsite.io/",
        "referenceUrl": "",
        "expect": 0,
        "viewportLabel": "tablet",
        "diff": {
          "isSameDimensions": true,
          "dimensionDifference": {
            "width": 0,
            "height": 0
          },
          "rawMisMatchPercentage": 3.3219051336396586,
          "misMatchPercentage": "3.32",
          "analysisTime": 365
        },
        "diffImage": "../bitmaps_test/20230527-114138/failed_diff_BackstopHighEdWebAcademiesTest_HighEdWeb_Association_Home_Page_0_document_1_tablet.png"
      },
      "status": "fail"
    },
    {
      "pair": {
        "reference": "../bitmaps_reference/BackstopHighEdWebAcademiesTest_HighEdWeb_Association_Home_Page_0_document_2_desktop.png",
        "referenceLog": "../bitmaps_reference/BackstopHighEdWebAcademiesTest_HighEdWeb_Association_Home_Page_0_document_2_desktop.log.json",
        "test": "../bitmaps_test/20230527-114138/BackstopHighEdWebAcademiesTest_HighEdWeb_Association_Home_Page_0_document_2_desktop.png",
        "testLog": "../bitmaps_test/20230527-114138/BackstopHighEdWebAcademiesTest_HighEdWeb_Association_Home_Page_0_document_2_desktop.log.json",
        "selector": "document",
        "fileName": "BackstopHighEdWebAcademiesTest_HighEdWeb_Association_Home_Page_0_document_2_desktop.png",
        "label": "HighEdWeb Association Home Page",
        "requireSameDimensions": true,
        "misMatchThreshold": 0.1,
        "url": "https://test-hewacademy.pantheonsite.io/",
        "referenceUrl": "",
        "expect": 0,
        "viewportLabel": "desktop",
        "diff": {
          "isSameDimensions": true,
          "dimensionDifference": {
            "width": 0,
            "height": 0
          },
          "rawMisMatchPercentage": 1.6463210384073692,
          "misMatchPercentage": "1.65",
          "analysisTime": 385
        },
        "diffImage": "../bitmaps_test/20230527-114138/failed_diff_BackstopHighEdWebAcademiesTest_HighEdWeb_Association_Home_Page_0_document_2_desktop.png"
      },
      "status": "fail"
    },
    {
      "pair": {
        "reference": "../bitmaps_reference/BackstopHighEdWebAcademiesTest_HighEdWeb_Association_About_Page_0_document_0_phone.png",
        "referenceLog": "../bitmaps_reference/BackstopHighEdWebAcademiesTest_HighEdWeb_Association_About_Page_0_document_0_phone.log.json",
        "test": "../bitmaps_test/20230527-114138/BackstopHighEdWebAcademiesTest_HighEdWeb_Association_About_Page_0_document_0_phone.png",
        "testLog": "../bitmaps_test/20230527-114138/BackstopHighEdWebAcademiesTest_HighEdWeb_Association_About_Page_0_document_0_phone.log.json",
        "selector": "document",
        "fileName": "BackstopHighEdWebAcademiesTest_HighEdWeb_Association_About_Page_0_document_0_phone.png",
        "label": "HighEdWeb Association About Page",
        "requireSameDimensions": true,
        "misMatchThreshold": 0.1,
        "url": "https://test-hewacademy.pantheonsite.io/about/",
        "referenceUrl": "",
        "expect": 0,
        "viewportLabel": "phone",
        "diff": {
          "isSameDimensions": true,
          "dimensionDifference": {
            "width": 0,
            "height": 0
          },
          "misMatchPercentage": "0.00"
        }
      },
      "status": "pass"
    },
    {
      "pair": {
        "reference": "../bitmaps_reference/BackstopHighEdWebAcademiesTest_HighEdWeb_Association_About_Page_0_document_1_tablet.png",
        "referenceLog": "../bitmaps_reference/BackstopHighEdWebAcademiesTest_HighEdWeb_Association_About_Page_0_document_1_tablet.log.json",
        "test": "../bitmaps_test/20230527-114138/BackstopHighEdWebAcademiesTest_HighEdWeb_Association_About_Page_0_document_1_tablet.png",
        "testLog": "../bitmaps_test/20230527-114138/BackstopHighEdWebAcademiesTest_HighEdWeb_Association_About_Page_0_document_1_tablet.log.json",
        "selector": "document",
        "fileName": "BackstopHighEdWebAcademiesTest_HighEdWeb_Association_About_Page_0_document_1_tablet.png",
        "label": "HighEdWeb Association About Page",
        "requireSameDimensions": true,
        "misMatchThreshold": 0.1,
        "url": "https://test-hewacademy.pantheonsite.io/about/",
        "referenceUrl": "",
        "expect": 0,
        "viewportLabel": "tablet",
        "diff": {
          "isSameDimensions": true,
          "dimensionDifference": {
            "width": 0,
            "height": 0
          },
          "rawMisMatchPercentage": 4.5207264783698475,
          "misMatchPercentage": "4.52",
          "analysisTime": 479
        },
        "diffImage": "../bitmaps_test/20230527-114138/failed_diff_BackstopHighEdWebAcademiesTest_HighEdWeb_Association_About_Page_0_document_1_tablet.png"
      },
      "status": "fail"
    },
    {
      "pair": {
        "reference": "../bitmaps_reference/BackstopHighEdWebAcademiesTest_HighEdWeb_Association_About_Page_0_document_2_desktop.png",
        "referenceLog": "../bitmaps_reference/BackstopHighEdWebAcademiesTest_HighEdWeb_Association_About_Page_0_document_2_desktop.log.json",
        "test": "../bitmaps_test/20230527-114138/BackstopHighEdWebAcademiesTest_HighEdWeb_Association_About_Page_0_document_2_desktop.png",
        "testLog": "../bitmaps_test/20230527-114138/BackstopHighEdWebAcademiesTest_HighEdWeb_Association_About_Page_0_document_2_desktop.log.json",
        "selector": "document",
        "fileName": "BackstopHighEdWebAcademiesTest_HighEdWeb_Association_About_Page_0_document_2_desktop.png",
        "label": "HighEdWeb Association About Page",
        "requireSameDimensions": true,
        "misMatchThreshold": 0.1,
        "url": "https://test-hewacademy.pantheonsite.io/about/",
        "referenceUrl": "",
        "expect": 0,
        "viewportLabel": "desktop",
        "diff": {
          "isSameDimensions": true,
          "dimensionDifference": {
            "width": 0,
            "height": 0
          },
          "rawMisMatchPercentage": 5.765234247832135,
          "misMatchPercentage": "5.77",
          "analysisTime": 629
        },
        "diffImage": "../bitmaps_test/20230527-114138/failed_diff_BackstopHighEdWebAcademiesTest_HighEdWeb_Association_About_Page_0_document_2_desktop.png"
      },
      "status": "fail"
    },
    {
      "pair": {
        "reference": "../bitmaps_reference/BackstopHighEdWebAcademiesTest_Technical_Academy_Schedule_0_document_0_phone.png",
        "referenceLog": "../bitmaps_reference/BackstopHighEdWebAcademiesTest_Technical_Academy_Schedule_0_document_0_phone.log.json",
        "test": "../bitmaps_test/20230527-114138/BackstopHighEdWebAcademiesTest_Technical_Academy_Schedule_0_document_0_phone.png",
        "testLog": "../bitmaps_test/20230527-114138/BackstopHighEdWebAcademiesTest_Technical_Academy_Schedule_0_document_0_phone.log.json",
        "selector": "document",
        "fileName": "BackstopHighEdWebAcademiesTest_Technical_Academy_Schedule_0_document_0_phone.png",
        "label": "Technical Academy Schedule",
        "requireSameDimensions": true,
        "misMatchThreshold": 0.1,
        "url": "https://test-hewacademy.pantheonsite.io/technical/schedule/",
        "referenceUrl": "",
        "expect": 0,
        "viewportLabel": "phone",
        "diff": {
          "isSameDimensions": true,
          "dimensionDifference": {
            "width": 0,
            "height": 0
          },
          "misMatchPercentage": "0.00"
        }
      },
      "status": "pass"
    },
    {
      "pair": {
        "reference": "../bitmaps_reference/BackstopHighEdWebAcademiesTest_Technical_Academy_Schedule_0_document_1_tablet.png",
        "referenceLog": "../bitmaps_reference/BackstopHighEdWebAcademiesTest_Technical_Academy_Schedule_0_document_1_tablet.log.json",
        "test": "../bitmaps_test/20230527-114138/BackstopHighEdWebAcademiesTest_Technical_Academy_Schedule_0_document_1_tablet.png",
        "testLog": "../bitmaps_test/20230527-114138/BackstopHighEdWebAcademiesTest_Technical_Academy_Schedule_0_document_1_tablet.log.json",
        "selector": "document",
        "fileName": "BackstopHighEdWebAcademiesTest_Technical_Academy_Schedule_0_document_1_tablet.png",
        "label": "Technical Academy Schedule",
        "requireSameDimensions": true,
        "misMatchThreshold": 0.1,
        "url": "https://test-hewacademy.pantheonsite.io/technical/schedule/",
        "referenceUrl": "",
        "expect": 0,
        "viewportLabel": "tablet",
        "diff": {
          "isSameDimensions": true,
          "dimensionDifference": {
            "width": 0,
            "height": 0
          },
          "misMatchPercentage": "0.00"
        }
      },
      "status": "pass"
    },
    {
      "pair": {
        "reference": "../bitmaps_reference/BackstopHighEdWebAcademiesTest_Technical_Academy_Schedule_0_document_2_desktop.png",
        "referenceLog": "../bitmaps_reference/BackstopHighEdWebAcademiesTest_Technical_Academy_Schedule_0_document_2_desktop.log.json",
        "test": "../bitmaps_test/20230527-114138/BackstopHighEdWebAcademiesTest_Technical_Academy_Schedule_0_document_2_desktop.png",
        "testLog": "../bitmaps_test/20230527-114138/BackstopHighEdWebAcademiesTest_Technical_Academy_Schedule_0_document_2_desktop.log.json",
        "selector": "document",
        "fileName": "BackstopHighEdWebAcademiesTest_Technical_Academy_Schedule_0_document_2_desktop.png",
        "label": "Technical Academy Schedule",
        "requireSameDimensions": true,
        "misMatchThreshold": 0.1,
        "url": "https://test-hewacademy.pantheonsite.io/technical/schedule/",
        "referenceUrl": "",
        "expect": 0,
        "viewportLabel": "desktop",
        "diff": {
          "isSameDimensions": true,
          "dimensionDifference": {
            "width": 0,
            "height": 0
          },
          "misMatchPercentage": "0.00"
        }
      },
      "status": "pass"
    },
    {
      "pair": {
        "reference": "../bitmaps_reference/BackstopHighEdWebAcademiesTest_Content_UX_Academy_Home_Page_0_document_0_phone.png",
        "referenceLog": "../bitmaps_reference/BackstopHighEdWebAcademiesTest_Content_UX_Academy_Home_Page_0_document_0_phone.log.json",
        "test": "../bitmaps_test/20230527-114138/BackstopHighEdWebAcademiesTest_Content_UX_Academy_Home_Page_0_document_0_phone.png",
        "testLog": "../bitmaps_test/20230527-114138/BackstopHighEdWebAcademiesTest_Content_UX_Academy_Home_Page_0_document_0_phone.log.json",
        "selector": "document",
        "fileName": "BackstopHighEdWebAcademiesTest_Content_UX_Academy_Home_Page_0_document_0_phone.png",
        "label": "Content/UX Academy Home Page",
        "requireSameDimensions": true,
        "misMatchThreshold": 0.1,
        "url": "https://test-hewacademy.pantheonsite.io/integrated/",
        "referenceUrl": "",
        "expect": 0,
        "viewportLabel": "phone",
        "diff": {
          "isSameDimensions": true,
          "dimensionDifference": {
            "width": 0,
            "height": 0
          },
          "misMatchPercentage": "0.00"
        }
      },
      "status": "pass"
    },
    {
      "pair": {
        "reference": "../bitmaps_reference/BackstopHighEdWebAcademiesTest_Content_UX_Academy_Home_Page_0_document_1_tablet.png",
        "referenceLog": "../bitmaps_reference/BackstopHighEdWebAcademiesTest_Content_UX_Academy_Home_Page_0_document_1_tablet.log.json",
        "test": "../bitmaps_test/20230527-114138/BackstopHighEdWebAcademiesTest_Content_UX_Academy_Home_Page_0_document_1_tablet.png",
        "testLog": "../bitmaps_test/20230527-114138/BackstopHighEdWebAcademiesTest_Content_UX_Academy_Home_Page_0_document_1_tablet.log.json",
        "selector": "document",
        "fileName": "BackstopHighEdWebAcademiesTest_Content_UX_Academy_Home_Page_0_document_1_tablet.png",
        "label": "Content/UX Academy Home Page",
        "requireSameDimensions": true,
        "misMatchThreshold": 0.1,
        "url": "https://test-hewacademy.pantheonsite.io/integrated/",
        "referenceUrl": "",
        "expect": 0,
        "viewportLabel": "tablet",
        "diff": {
          "isSameDimensions": true,
          "dimensionDifference": {
            "width": 0,
            "height": 0
          },
          "misMatchPercentage": "0.00"
        }
      },
      "status": "pass"
    },
    {
      "pair": {
        "reference": "../bitmaps_reference/BackstopHighEdWebAcademiesTest_Content_UX_Academy_Home_Page_0_document_2_desktop.png",
        "referenceLog": "../bitmaps_reference/BackstopHighEdWebAcademiesTest_Content_UX_Academy_Home_Page_0_document_2_desktop.log.json",
        "test": "../bitmaps_test/20230527-114138/BackstopHighEdWebAcademiesTest_Content_UX_Academy_Home_Page_0_document_2_desktop.png",
        "testLog": "../bitmaps_test/20230527-114138/BackstopHighEdWebAcademiesTest_Content_UX_Academy_Home_Page_0_document_2_desktop.log.json",
        "selector": "document",
        "fileName": "BackstopHighEdWebAcademiesTest_Content_UX_Academy_Home_Page_0_document_2_desktop.png",
        "label": "Content/UX Academy Home Page",
        "requireSameDimensions": true,
        "misMatchThreshold": 0.1,
        "url": "https://test-hewacademy.pantheonsite.io/integrated/",
        "referenceUrl": "",
        "expect": 0,
        "viewportLabel": "desktop",
        "diff": {
          "isSameDimensions": true,
          "dimensionDifference": {
            "width": 0,
            "height": 0
          },
          "misMatchPercentage": "0.00"
        }
      },
      "status": "pass"
    },
    {
      "pair": {
        "reference": "../bitmaps_reference/BackstopHighEdWebAcademiesTest_Leadership_Academy_Registration_0_document_0_phone.png",
        "referenceLog": "../bitmaps_reference/BackstopHighEdWebAcademiesTest_Leadership_Academy_Registration_0_document_0_phone.log.json",
        "test": "../bitmaps_test/20230527-114138/BackstopHighEdWebAcademiesTest_Leadership_Academy_Registration_0_document_0_phone.png",
        "testLog": "../bitmaps_test/20230527-114138/BackstopHighEdWebAcademiesTest_Leadership_Academy_Registration_0_document_0_phone.log.json",
        "selector": "document",
        "fileName": "BackstopHighEdWebAcademiesTest_Leadership_Academy_Registration_0_document_0_phone.png",
        "label": "Leadership Academy Registration",
        "requireSameDimensions": true,
        "misMatchThreshold": 0.1,
        "url": "https://test-hewacademy.pantheonsite.io/leadership/registration/",
        "referenceUrl": "",
        "expect": 0,
        "viewportLabel": "phone",
        "diff": {
          "isSameDimensions": true,
          "dimensionDifference": {
            "width": 0,
            "height": 0
          },
          "misMatchPercentage": "0.00"
        }
      },
      "status": "pass"
    },
    {
      "pair": {
        "reference": "../bitmaps_reference/BackstopHighEdWebAcademiesTest_Leadership_Academy_Registration_0_document_1_tablet.png",
        "referenceLog": "../bitmaps_reference/BackstopHighEdWebAcademiesTest_Leadership_Academy_Registration_0_document_1_tablet.log.json",
        "test": "../bitmaps_test/20230527-114138/BackstopHighEdWebAcademiesTest_Leadership_Academy_Registration_0_document_1_tablet.png",
        "testLog": "../bitmaps_test/20230527-114138/BackstopHighEdWebAcademiesTest_Leadership_Academy_Registration_0_document_1_tablet.log.json",
        "selector": "document",
        "fileName": "BackstopHighEdWebAcademiesTest_Leadership_Academy_Registration_0_document_1_tablet.png",
        "label": "Leadership Academy Registration",
        "requireSameDimensions": true,
        "misMatchThreshold": 0.1,
        "url": "https://test-hewacademy.pantheonsite.io/leadership/registration/",
        "referenceUrl": "",
        "expect": 0,
        "viewportLabel": "tablet",
        "diff": {
          "isSameDimensions": true,
          "dimensionDifference": {
            "width": 0,
            "height": 0
          },
          "misMatchPercentage": "0.00"
        }
      },
      "status": "pass"
    },
    {
      "pair": {
        "reference": "../bitmaps_reference/BackstopHighEdWebAcademiesTest_Leadership_Academy_Registration_0_document_2_desktop.png",
        "referenceLog": "../bitmaps_reference/BackstopHighEdWebAcademiesTest_Leadership_Academy_Registration_0_document_2_desktop.log.json",
        "test": "../bitmaps_test/20230527-114138/BackstopHighEdWebAcademiesTest_Leadership_Academy_Registration_0_document_2_desktop.png",
        "testLog": "../bitmaps_test/20230527-114138/BackstopHighEdWebAcademiesTest_Leadership_Academy_Registration_0_document_2_desktop.log.json",
        "selector": "document",
        "fileName": "BackstopHighEdWebAcademiesTest_Leadership_Academy_Registration_0_document_2_desktop.png",
        "label": "Leadership Academy Registration",
        "requireSameDimensions": true,
        "misMatchThreshold": 0.1,
        "url": "https://test-hewacademy.pantheonsite.io/leadership/registration/",
        "referenceUrl": "",
        "expect": 0,
        "viewportLabel": "desktop",
        "diff": {
          "isSameDimensions": true,
          "dimensionDifference": {
            "width": 0,
            "height": 0
          },
          "misMatchPercentage": "0.00"
        }
      },
      "status": "pass"
    }
  ],
  "id": "Backstop HighEdWeb Academies Test"
}